{
  "annotations": {
    "list": [
      {
        "builtIn": 1,
        "datasource": {
          "type": "datasource",
          "uid": "grafana"
        },
        "enable": true,
        "hide": true,
        "iconColor": "rgba(0, 211, 255, 1)",
        "name": "Annotations & Alerts",
        "target": {
          "limit": 100,
          "matchAny": false,
          "tags": [],
          "type": "dashboard"
        },
        "type": "dashboard"
      }
    ]
  },
  "description": "Draft dashboard to test new views",
  "editable": true,
  "fiscalYearStartMonth": 0,
  "graphTooltip": 1,
  "id": 1,
  "links": [
    {
      "asDropdown": false,
      "icon": "external link",
      "includeVars": true,
      "keepTime": true,
      "tags": [
        "mesa"
      ],
      "targetBlank": true,
      "title": "Detailed Performance",
      "tooltip": "",
      "type": "dashboards",
      "url": ""
    },
    {
      "asDropdown": false,
      "icon": "external link",
      "includeVars": false,
      "keepTime": false,
      "tags": [],
      "targetBlank": true,
      "title": "Mesa Performance Alerts",
      "tooltip": "Check alerts",
      "type": "link",
      "url": "https://gitlab.freedesktop.org/mesa/mesa/-/issues/7144"
    }
  ],
  "liveNow": false,
  "panels": [
    {
      "datasource": {
        "type": "influxdb",
        "uid": "idzRlgdVk"
      },
      "fieldConfig": {
        "defaults": {
          "color": {
            "mode": "palette-classic"
          },
          "custom": {
            "axisCenteredZero": false,
            "axisColorMode": "text",
            "axisLabel": "FPS",
            "axisPlacement": "auto",
            "barAlignment": 0,
            "drawStyle": "line",
            "fillOpacity": 0,
            "gradientMode": "opacity",
            "hideFrom": {
              "legend": false,
              "tooltip": false,
              "viz": false
            },
            "lineInterpolation": "smooth",
            "lineWidth": 0,
            "pointSize": 4,
            "scaleDistribution": {
              "type": "linear"
            },
            "showPoints": "never",
            "spanNulls": true,
            "stacking": {
              "group": "A",
              "mode": "none"
            },
            "thresholdsStyle": {
              "mode": "off"
            }
          },
          "links": [
            {
              "title": "Job link",
              "url": "https://gitlab.freedesktop.org/${__field.labels.project_path}/-/jobs/${__field.labels.job_id}"
            },
            {
              "title": "Pipeline link",
              "url": "https://gitlab.freedesktop.org/${__field.labels.project_path}/-/pipelines/${__field.labels.pipeline_id}"
            }
          ],
          "mappings": [
            {
              "options": {
                "NaN": {
                  "color": "red",
                  "index": 0,
                  "text": "0"
                }
              },
              "type": "value"
            }
          ],
          "thresholds": {
            "mode": "absolute",
            "steps": [
              {
                "color": "green",
                "value": null
              },
              {
                "color": "red",
                "value": 80
              }
            ]
          },
          "unit": "short"
        },
        "overrides": [
          {
            "matcher": {
              "id": "byName",
              "options": "max"
            },
            "properties": [
              {
                "id": "custom.fillBelowTo",
                "value": "min"
              }
            ]
          },
          {
            "matcher": {
              "id": "byName",
              "options": "real"
            },
            "properties": [
              {
                "id": "custom.showPoints",
                "value": "always"
              },
              {
                "id": "custom.pointSize",
                "value": 8
              }
            ]
          },
          {
            "matcher": {
              "id": "byName",
              "options": "median"
            },
            "properties": [
              {
                "id": "custom.lineWidth",
                "value": 2
              }
            ]
          }
        ]
      },
      "gridPos": {
        "h": 7,
        "w": 6,
        "x": 0,
        "y": 0
      },
      "id": 1,
      "links": [
        {
          "targetBlank": true,
          "title": "Show Details",
          "url": "https://grafana.freedesktop.org/d/oVwmipv4z/detailed-view-for-mesa-driver-performance?${__all_variables}"
        }
      ],
      "options": {
        "legend": {
          "calcs": [],
          "displayMode": "list",
          "placement": "bottom",
          "showLegend": false
        },
        "tooltip": {
          "mode": "single",
          "sort": "none"
        }
      },
      "repeat": "trace",
      "targets": [
        {
          "datasource": {
            "type": "influxdb",
            "uid": "idzRlgdVk"
          },
          "dsType": "influxdb",
          "query": "import \"math\"\nimport \"influxdata/influxdb/schema\"\nimport \"experimental\"\n\njob = \"${job}\"\ntrace = \"${trace}\"\n// Go to the past to bring enough values to feed initial moving average values\nstart_time = experimental.subDuration(d: ${window_size}d, from: v.timeRangeStart)\nwindowPeriod = v.windowPeriod\nwindow_size = ${window_size}\nmovingAverageFn = ${movingAverageFn}\n\nexact_mean = (tables=<-, column) => tables\n    |> median(method: \"exact_selector\", column: column)\n\nns_to_fps = (tables=<-) => tables\n    |> map(\n        fn: (r) => ({r with\n            frame_time: 1000000000.0 / float(v: r.frame_time),\n        }),\n    )\n\nbaseline = from(bucket: \"mesa-perf-v2\")\n    |> range(start: start_time, stop: v.timeRangeStop)\n    |> filter(fn: (r) => r._measurement == \"frame_time\" and r.job_name == job and r.trace_name == trace)    \n    |> schema.fieldsAsCols()\n    |> ns_to_fps()\n    |> rename(columns: {frame_time: \"_value\"})\n\nsmooth_graph = (tables=<-, fn, column_name) => tables\n    |> aggregateWindow(every: windowPeriod, fn: fn, createEmpty: false)\n    |> movingAverageFn(n: window_size)\n    |> fill(usePrevious: true)\n    |> keep(columns: [\"_time\", \"_value\"])\n    |> rename(columns: {_value: column_name})\n    |> yield(name: column_name)\n\nreal = baseline\n    |> aggregateWindow(every: windowPeriod, fn: exact_mean, createEmpty: false)\n    |> drop(columns: [\"_start\", \"_stop\", \"commit_sha\", \"job_name\", \"trace_name\"])\n    |> group(columns: [\"_time\", \"_value\"], mode: \"except\")\n    |> rename(columns: {_value: \"real\"})\n    |> yield(name: \"real\")\n\nmedi = baseline\n    |> smooth_graph(fn: exact_mean, column_name: \"median\")\n\nmini = baseline\n    |> smooth_graph(fn: min, column_name: \"min\")\n\nmaxi = baseline\n    |> smooth_graph(fn: max, column_name: \"max\")",
          "rawQuery": true,
          "refId": "A"
        }
      ],
      "title": "${trace}",
      "transformations": [],
      "transparent": true,
      "type": "timeseries"
    }
  ],
  "refresh": "",
  "schemaVersion": 37,
  "style": "dark",
  "tags": [
    "mesa"
  ],
  "templating": {
    "list": [
      {
        "allFormat": "glob",
        "current": {
          "selected": false,
          "text": "a630-traces-performance",
          "value": "a630-traces-performance"
        },
        "datasource": {
          "type": "influxdb",
          "uid": "idzRlgdVk"
        },
        "definition": "",
        "hide": 0,
        "includeAll": false,
        "multi": false,
        "name": "job",
        "options": [],
        "query": "import \"influxdata/influxdb/schema\" import \"strings\" schema.tagValues( bucket: \"mesa-perf-v2\", tag: \"job_name\", )",
        "refresh": 1,
        "regex": "",
        "skipUrlSync": false,
        "sort": 0,
        "type": "query"
      },
      {
        "allFormat": "glob",
        "current": {
          "selected": true,
          "text": [
            "All"
          ],
          "value": [
            "$__all"
          ]
        },
        "datasource": {
          "type": "influxdb",
          "uid": "idzRlgdVk"
        },
        "definition": "from(bucket: \"mesa-perf-v2\")\n|> range(start: v.timeRangeStart, stop: v.timeRangeStop)\n  |> filter(fn: (r) => r.job_name == \"${job}\")\n  |> group(columns: [\"trace_name\"], mode:\"by\")\n  |> count(column: \"_value\")\n  |> map(fn: (r) => ({ r : r.trace_name }))",
        "hide": 0,
        "includeAll": true,
        "multi": true,
        "name": "trace",
        "options": [],
        "query": "from(bucket: \"mesa-perf-v2\")\n|> range(start: v.timeRangeStart, stop: v.timeRangeStop)\n  |> filter(fn: (r) => r.job_name == \"${job}\")\n  |> group(columns: [\"trace_name\"], mode:\"by\")\n  |> count(column: \"_value\")\n  |> map(fn: (r) => ({ r : r.trace_name }))",
        "refresh": 2,
        "regex": "",
        "skipUrlSync": false,
        "sort": 0,
        "type": "query"
      },
      {
        "current": {
          "selected": true,
          "text": "kaufmansAMA",
          "value": "kaufmansAMA"
        },
        "hide": 0,
        "includeAll": false,
        "multi": false,
        "name": "movingAverageFn",
        "options": [
          {
            "selected": true,
            "text": "kaufmansAMA",
            "value": "kaufmansAMA"
          },
          {
            "selected": false,
            "text": "movingAverage",
            "value": "movingAverage"
          },
          {
            "selected": false,
            "text": "exponentialMovingAverage",
            "value": "exponentialMovingAverage"
          },
          {
            "selected": false,
            "text": "doubleEMA",
            "value": "doubleEMA"
          },
          {
            "selected": false,
            "text": "tripleEMA",
            "value": "tripleEMA"
          }
        ],
        "query": "kaufmansAMA, movingAverage, exponentialMovingAverage, doubleEMA, tripleEMA",
        "queryValue": "",
        "skipUrlSync": false,
        "type": "custom"
      },
      {
        "current": {
          "selected": false,
          "text": "20",
          "value": "20"
        },
        "hide": 0,
        "label": "Moving Average window size",
        "name": "window_size",
        "options": [
          {
            "selected": true,
            "text": "20",
            "value": "20"
          }
        ],
        "query": "20",
        "skipUrlSync": false,
        "type": "textbox"
      }
    ]
  },
  "time": {
    "from": "now-30d",
    "to": "now"
  },
  "timepicker": {
    "refresh_intervals": [
      "5m",
      "15m",
      "30m",
      "1h"
    ],
    "time_options": [
      "1h",
      "6h",
      "12h",
      "24h",
      "2d",
      "7d",
      "14d",
      "30d"
    ],
    "type": "timepicker"
  },
  "timezone": "",
  "title": "[next] Mesa driver performance",
  "uid": "cbDUg3HVz",
  "version": 5,
  "weekStart": ""
}